Data Visualization - Ellie Marvin
…
      Data Visualization

         2021-02-15 

  Contents

Exercise 6

Time: 5 hours

Following tutorial from the reading. Loading gapminder library and sample data.

gapminder

## # A tibble: 1,704 x 6
##    country     continent  year lifeExp      pop gdpPercap
##    <fct>       <fct>     <int>   <dbl>    <int>     <dbl>
##  1 Afghanistan Asia       1952    28.8  8425333      779.
##  2 Afghanistan Asia       1957    30.3  9240934      821.
##  3 Afghanistan Asia       1962    32.0 10267083      853.
##  4 Afghanistan Asia       1967    34.0 11537966      836.
##  5 Afghanistan Asia       1972    36.1 13079460      740.
##  6 Afghanistan Asia       1977    38.4 14880372      786.
##  7 Afghanistan Asia       1982    39.9 12881816      978.
##  8 Afghanistan Asia       1987    40.8 13867957      852.
##  9 Afghanistan Asia       1992    41.7 16317921      649.
## 10 Afghanistan Asia       1997    41.8 22227415      635.
## # ... with 1,694 more rows
…
I really need to reevaluate what I want out of this visualization. Ive hit a wall and nothing Im doing looks quite right. Im going back to the original table I was working with.

names <- read_csv("namestib.csv")

## Parsed with column specification:
## cols(
##   Name = col_character(),
##   Source = col_character(),
##   Role = col_character()
## )

ntib <- as_tibble(names)
ntib

## # A tibble: 181 x 3
##    Name                Source                    Role               
##    <chr>               <chr>                     <chr>              
##  1 Alfred Jarry        Manifestoes of Surrealism Writer             
##  2 Alfred Jarry        Punishments of Hell       Writer             
##  3 Alfred Petitdemange Babylon                   Fictional character
##  4 Alphonse Rabbe      Manifestoes of Surrealism Writer             
##  5 Anatole Crasse      Death to the Pigs         Unknown            
##  6 Anatole France      Manifestoes of Surrealism Poet               
##  7 Andre Breton        Paris Peasant             Surrealist         
##  8 Andre Breton        Punishments of Hell       Surrealist         
##  9 Andre Gide          Death to the Pigs         Writer             
## 10 Antontin Artaud     Manifestoes of Surrealism Surrealist         
## # ... with 171 more rows
…
